#Updated 25th August 2023
#Appodeal
appodeal.com, 12443, DIRECT
#BidMachine
bidmachine.io, 12443, DIRECT
#AdMob
#Replace the Publisher_ID below with your Admob Publisher ID
google.com, Publisher_ID, DIRECT, f08c47fec0942fa0
#Meta Facebook
#Replace the Business_ID below with your Meta Business ID
facebook.com,Business_ID,RESELLER,c3e20eee3f780d68 

#Resellers
152media.info,152M10,RESELLER
152media.info,152M5,RESELLER
acexchange.co.kr,1081983882,RESELLER
acexchange.co.kr,1416775282,RESELLER
ad-generation.jp,12474,RESELLER,7f4ea9029ac04e53
adapex.io,s1694,RESELLER
adapex.io,s1704,RESELLER
adapex.io,s1809,RESELLER
adapex.io,s2100,RESELLER
adapex.io,s2169,RESELLER
adbility-media.com,187,RESELLER
adcolony.com,0a0f72cd66122f31,RESELLER,1ad675c9de6b5176
adcolony.com,197af3936679d34e,RESELLER,1ad675c9de6b5176
adcolony.com,1efc6603710003ea,RESELLER,1ad675c9de6b5176
adcolony.com,29b7f4a14dc689eb,RESELLER
adcolony.com,29b7f4a14dc689eb,RESELLER,1ad675c9de6b5176
adcolony.com,382d79cd1387e603,RESELLER,1ad675c9de6b5176
adcolony.com,496220845654deec,RESELLER,1ad675c9de6b5176
adcolony.com,c7b2bb9f944ae42a,RESELLER,1ad675c9de6b5176
adcolony.com,fcaa373cac67c9f927aa914013b8346e,RESELLER,1ad675c9de6b5176
adelement.com,101,RESELLER
adelement.com,30020,RESELLER
adelement.com,30167,RESELLER
adelement.com,30208,RESELLER
adelement.com,30273,RESELLER
adelement.com,30299,RESELLER
adform.com,2742,RESELLER,9f5210a2f0999e32
adform.com,2795,RESELLER,9f5210a2f0999e32
adform.com,2831,RESELLER,9f5210a2f0999e32
adingo.jp,27242,RESELLER
admanmedia.com,43,RESELLER
admanmedia.com,613,RESELLER
admanmedia.com,726,RESELLER
admanmedia.com,990,RESELLER
admixer.co.kr,1094,RESELLER
admixer.co.kr,1610,RESELLER
admixer.co.kr,1629,RESELLER
admixer.net,4ca083cd-412f-49fe-b832-5b66ee490d9a,RESELLER
admixer.net,8e380da6-31ba-488c-939c-290c48d577e4,RESELLER
admixer.net,a80e4ca1-f52f-4aa5-98e1-010c8d08251b,RESELLER
admixer.net,de2ae535-59eb-4f0b-95e3-89f821933d47,RESELLER
adstxtmarket.com,7617123791,RESELLER
adtelligent.com,316151,RESELLER
adtonos.com,PUB3603521960,RESELLER
advertising.com,23089,RESELLER
adview.com,32076181,RESELLER,1b2cc038a11ea319
adview.com,48045325,RESELLER,1b2cc038a11ea319
adview.com,6667060,RESELLER,1b2cc038a11ea319
advlion.com,3054,RESELLER,58b813a6c4d05071
advlion.com,3083,RESELLER,58b813a6c4d05071
advlion.com,3108,RESELLER,58b813a6c4d05071
advlion.com,3117,RESELLER
advlion.com,3263,RESELLER
adyoulike.com,b4bf4fdd9b0b915f746f6747ff432bde,RESELLER,4ad745ead2958bf7
algorix.co,54400,RESELLER,5b394c12fea27a1d
algorix.co,54616,RESELLER,5b394c12fea27a1d
algorix.co,60016,RESELLER,5b394c12fea27a1d
algorix.co,60019,RESELLER,5b394c12fea27a1d
algorix.co,60085,RESELLER,5b394c12fea27a1d
algorix.co,60086,RESELLER,5b394c12fea27a1d
algorix.co,60098,RESELLER,5b394c12fea27a1d
algorix.co,60112,RESELLER,5b394c12fea27a1d
algorix.co,60184,RESELLER,5b394c12fea27a1d
algorix.co,60532,RESELLER,5b394c12fea27a1d
alpineinteractivegroup.com,8113111129,RESELLER
altitude-arena.com,FIRD0F0P6T2MLDMG7GCJFTBAI8,RESELLER
aniview.com,603f65a2e291680ef30af9c7,RESELLER,78b21b97965ec3f8
anyclip.com,0011r00001kaHtoAAE,RESELLER
app-stock.com,256917,RESELLER
app-stock.com,343264,RESELLER
app-stock.com,358747,RESELLER
appads.in,105536,RESELLER
appads.in,106246,RESELLER
appads.in,107606,RESELLER
applovin.com,5c72b49c2b2ce6949bf0f98eafe9e417,RESELLER
appnexus.com,1019,RESELLER,f5ab79cb980f11d1
appnexus.com,10617,RESELLER,f5ab79cb980f11d1
appnexus.com,11236,RESELLER,f5ab79cb980f11d1
appnexus.com,11450,RESELLER,f5ab79cb980f11d1
appnexus.com,11664,RESELLER,f5ab79cb980f11d1
appnexus.com,11826,RESELLER,f5ab79cb980f11d1
appnexus.com,11924,RESELLER,f5ab79cb980f11d1
appnexus.com,12223,RESELLER,f5ab79cb980f11d1
appnexus.com,12366,RESELLER,f5ab79cb980f11d1
appnexus.com,12622,RESELLER,f5ab79cb980f11d1
appnexus.com,12637,RESELLER,f5ab79cb980f11d1
appnexus.com,12840,RESELLER,f5ab79cb980f11d1
appnexus.com,12878,RESELLER,f5ab79cb980f11d1
appnexus.com,12964,RESELLER,f5ab79cb980f11d1
appnexus.com,12976,RESELLER,f5ab79cb980f11d1
appnexus.com,13293,RESELLER,f5ab79cb980f11d1
appnexus.com,13297,RESELLER,f5ab79cb980f11d1
appnexus.com,1356,RESELLER,f5ab79cb980f11d1
appnexus.com,13701,RESELLER,f5ab79cb980f11d1
appnexus.com,14080,RESELLER,f5ab79cb980f11d1
appnexus.com,14228,RESELLER,f5ab79cb980f11d1
appnexus.com,14416,RESELLER,f5ab79cb980f11d1
appnexus.com,14423,RESELLER,f5ab79cb980f11d1
appnexus.com,15349,RESELLER,f5ab79cb980f11d1
appnexus.com,1752,RESELLER,f5ab79cb980f11d1
appnexus.com,1908,RESELLER,f5ab79cb980f11d1
appnexus.com,2480,RESELLER,f5ab79cb980f11d1
appnexus.com,2764,RESELLER,f5ab79cb980f11d1
appnexus.com,3153,RESELLER,f5ab79cb980f11d1
appnexus.com,3663,RESELLER,f5ab79cb980f11d1
appnexus.com,3703,RESELLER,f5ab79cb980f11d1
appnexus.com,4052,RESELLER,f5ab79cb980f11d1
appnexus.com,6849,RESELLER,f5ab79cb980f11d1
appnexus.com,7351,RESELLER,f5ab79cb980f11d1
appnexus.com,7445,RESELLER,f5ab79cb980f11d1
appnexus.com,8178,RESELLER,f5ab79cb980f11d1
appnexus.com,9316,RESELLER,f5ab79cb980f11d1
appnexus.com,9382,RESELLER,f5ab79cb980f11d1
appnexus.com,9393,RESELLER,f5ab79cb980f11d1
appnexus.com,9818,RESELLER,f5ab79cb980f11d1
aps.amazon.com,71d4b8ca-53d1-4309-a952-3306259fb046,RESELLER
aps.amazon.com,d4004b5f-4fb6-4be2-82ae-0e36b8f52c12,RESELLER
aralego.com,par-47BDB68D72764E2AFED767ED47DEDDA4,RESELLER
aralego.com,par-627DA26297666D280EA8323E33ABAED7,RESELLER
aralego.com,par-9A292743382DDA3AC4B7964D293EBE44,RESELLER
aralego.com,par-AA7B236BA32DD484C838E249362437B8,RESELLER
aralego.com,par-BE7E29B3B48DE66BC7DDDA24E6267E29,RESELLER
aralego.com,par-D2346AAB7ABD36B4CDD7BBD264BA92E2,RESELLER
axonix.com,55724,RESELLER,bc385f2b4a87b721
axonix.com,56222,RESELLER
axonix.com,56222,RESELLER,bc385f2b4a87b721
axonix.com,57264,RESELLER,bc385f2b4a87b721
axonix.com,57311,RESELLER,bc385f2b4a87b721
axonix.com,57716,RESELLER,bc385f2b4a87b721
axonix.com,57869,RESELLER,bc385f2b4a87b721
beachfront.com,14804,RESELLER,e2541279e8e2ca4d
betweendigital.com,43092,RESELLER
betweendigital.com,43651,RESELLER
betweendigital.com,43713,RESELLER
betweendigital.com,43843,RESELLER
betweendigital.com,43871,RESELLER
betweendigital.com,44088,RESELLER
betweendigital.com,44098,RESELLER
betweendigital.com,44917,RESELLER
bidmachine.io,113,RESELLER
bidmachine.io,138,RESELLER
bidmachine.io,147,RESELLER
bidmachine.io,161,RESELLER
bidmachine.io,162,RESELLER
bidmachine.io,36,RESELLER
bidmachine.io,55,RESELLER
bidmachine.io,59,RESELLER
bidmachine.io,60,RESELLER
bidmachine.io,67,RESELLER
bidmachine.io,74,RESELLER
bidmachine.io,77,RESELLER
bidmatic.io,b-4d2f7,RESELLER
blis.com,137,RESELLER,61453ae19a4b73f4
blis.com,33,RESELLER,61453ae19a4b73f4
bold-win.com,542,RESELLER,71746737d0bab951
bold-win.com,705,RESELLER,71746737d0bab951
brightcom.com,20444,RESELLER
brightcom.com,20894,RESELLER
brightcom.com,29559,RESELLER
cazhype.com,efe937780e95574250dabe07151bdc2332799,RESELLER
chartboost.com,5d55f702facb6743686c50cc,RESELLER
connectad.io,197,RESELLER,85ac85a30c93b3e5
consumable.com,2001409,RESELLER,aefcd3d2f45b5070
consumable.com,2001446,RESELLER,aefcd3d2f45b5070
consumable.com,2001453,RESELLER,aefcd3d2f45b5070
contextweb.com,558622,RESELLER,89ff185a4c4e857c
contextweb.com,560606,RESELLER,89ff185a4c4e857c
contextweb.com,561849,RESELLER,89ff185a4c4e857c
contextweb.com,561913,RESELLER,89ff185a4c4e857c
contextweb.com,561998,RESELLER,89ff185a4c4e857c
contextweb.com,562122,RESELLER,89ff185a4c4e857c
contextweb.com,562499,RESELLER,89ff185a4c4e857c
contextweb.com,562541,RESELLER,89ff185a4c4e857c
contextweb.com,562546,RESELLER,89ff185a4c4e857c
contextweb.com,562569,RESELLER,89ff185a4c4e857c
contextweb.com,562718,RESELLER,89ff185a4c4e857c
contextweb.com,562724,RESELLER,89ff185a4c4e857c
contextweb.com,562726,RESELLER,89ff185a4c4e857c
contextweb.com,562741,RESELLER,89ff185a4c4e857c
contextweb.com,562757,RESELLER,89ff185a4c4e857c
contextweb.com,562791,RESELLER,89ff185a4c4e857c
contextweb.com,562794,RESELLER,89ff185a4c4e857c
contextweb.com,562807,RESELLER,89ff185a4c4e857c
contextweb.com,562824,RESELLER,89ff185a4c4e857c
contextweb.com,562827,RESELLER,89ff185a4c4e857c
contextweb.com,562841,RESELLER,89ff185a4c4e857c
contextweb.com,562852,RESELLER,89ff185a4c4e857c
contextweb.com,562859,RESELLER,89ff185a4c4e857c
contextweb.com,562867,RESELLER,89ff185a4c4e857c
contextweb.com,562885,RESELLER,89ff185a4c4e857c
contextweb.com,562892,RESELLER,89ff185a4c4e857c
contextweb.com,562900,RESELLER,89ff185a4c4e857c
contextweb.com,562944,RESELLER,89ff185a4c4e857c
contextweb.com,562964,RESELLER,89ff185a4c4e857c
conversantmedia.com,100081,RESELLER,03113cd04947736d
conversantmedia.com,100097,RESELLER,03113cd04947736d
conversantmedia.com,100234,RESELLER,03113cd04947736d
conversantmedia.com,100246,RESELLER,03113cd04947736d
conversantmedia.com,100264,RESELLER,03113cd04947736d
conversantmedia.com,100269,RESELLER,03113cd04947736d
conversantmedia.com,100273,RESELLER,03113cd04947736d
conversantmedia.com,100308,RESELLER,03113cd04947736d
conversantmedia.com,100331,RESELLER,03113cd04947736d
conversantmedia.com,100342,RESELLER,03113cd04947736d
conversantmedia.com,100343,RESELLER,03113cd04947736d
conversantmedia.com,100374,RESELLER,03113cd04947736d
conversantmedia.com,100386,RESELLER,03113cd04947736d
conversantmedia.com,100394,RESELLER,03113cd04947736d
conversantmedia.com,100396,RESELLER,03113cd04947736d
conversantmedia.com,100433,RESELLER,03113cd04947736d
conversantmedia.com,100447,RESELLER,03113cd04947736d
conversantmedia.com,100457,RESELLER,03113cd04947736d
conversantmedia.com,41896,RESELLER,03113cd04947736d
conversantmedia.com,42094,RESELLER,03113cd04947736d
criteo.com,B-057601,RESELLER,9fac4a4a87c2a44f
criteo.com,B-057955,RESELLER,9fac4a4a87c2a44f
criteo.com,B-061291,RESELLER,9fac4a4a87c2a44f
criteo.com,B-063105,RESELLER,9fac4a4a87c2a44f
criteo.com,B-064322,RESELLER,9fac4a4a87c2a44f
criteo.com,B-068074,RESELLER,9fac4a4a87c2a44f
districtm.io,100962,RESELLER,3fd707be9c4527c3
dynadmic.com,rh4thm0n33,RESELLER
e-planning.net,081dcb996d2ccc1e,RESELLER,c1ba615865ed87b2
e-planning.net,4a9ebbc3341a55df,RESELLER,c1ba615865ed87b2
e-planning.net,53f866af404c4b62,RESELLER,c1ba615865ed87b2
e-planning.net,835fbafe26d231b1,RESELLER,c1ba615865ed87b2
e-planning.net,864690bcd16cd011,RESELLER,c1ba615865ed87b2
e-planning.net,949b688810cb7439,RESELLER,c1ba615865ed87b2
e-planning.net,af5a107262468954,RESELLER,c1ba615865ed87b2
e-planning.net,b9165ad221c51225,RESELLER,c1ba615865ed87b2
e-planning.net,e1028cf4f3301b90,RESELLER,c1ba615865ed87b2
e-planning.net,ec771b05828a67fa,RESELLER,c1ba615865ed87b2
emodoinc.com,55724,RESELLER
emodoinc.com,57311,RESELLER,bc385f2b4a87b721
eskimi.com,eas-2020000005,RESELLER
flat-ads.com,6,RESELLER
flat-ads.com,72,RESELLER
freewheel.tv,1137745,RESELLER
freewheel.tv,1138513,RESELLER
freewheel.tv,1157729,RESELLER,74e8e47458f74754
freewheel.tv,1157777,RESELLER,74e8e47458f74754
freewheel.tv,1444578,RESELLER,74e8e47458f74754
freewheel.tv,1446674,RESELLER,74e8e47458f74754
freewheel.tv,1569302,RESELLER,74e8e47458f74754
freewheel.tv,1569311,RESELLER,74e8e47458f74754
freewheel.tv,1585681,RESELLER,74e8e47458f74754
fyber.com,219733,RESELLER
gamaigroup.com,320205,RESELLER
gamoshi.io,267-b2713,RESELLER
gamoshi.io,267-b4627,RESELLER
gamoshi.io,267-b4800,RESELLER,20e30b2ae1f670f2
gamoshi.io,267-b4808,RESELLER,20e30b2ae1f670f2
gitberry.com,577,RESELLER
gitberry.com,90scb,RESELLER
gitberry.com,IG3S1B,RESELLER
google.com,pub-1186731530376692,RESELLER,f08c47fec0942fa0
google.com,pub-1610783026453769,RESELLER,f08c47fec0942fa0
google.com,pub-1973560607649234,RESELLER,f08c47fec0942fa0
google.com,pub-2425549520214316,RESELLER,f08c47fec0942fa0
google.com,pub-2843405949989126,RESELLER,f08c47fec0942fa0
google.com,pub-2903204326855063,RESELLER,f08c47fec0942fa0
google.com,pub-3352248693972437,RESELLER,f08c47fec0942fa0
google.com,pub-3357809309522484,RESELLER,f08c47fec0942fa0
google.com,pub-3519168435174771,RESELLER,f08c47fec0942fa0
google.com,pub-3565385483761681,RESELLER,f08c47fec0942fa0
google.com,pub-3635537627664462,RESELLER,f08c47fec0942fa0
google.com,pub-3769010358500643,RESELLER,f08c47fec0942fa0
google.com,pub-3990748024667386,RESELLER,f08c47fec0942fa0
google.com,pub-4125454196932019,RESELLER,f08c47fec0942fa0
google.com,pub-4207651518270312,RESELLER,f08c47fec0942fa0
google.com,pub-4268396188465580,RESELLER,f08c47fec0942fa0
google.com,pub-4272971530084173,RESELLER,f08c47fec0942fa0
google.com,pub-4773118752362623,RESELLER,f08c47fec0942fa0
google.com,pub-4898055555973295,RESELLER,f08c47fec0942fa0
google.com,pub-5486507765916733,RESELLER,f08c47fec0942fa0
google.com,pub-5509723511493515,RESELLER,f08c47fec0942fa0
google.com,pub-5717092533913515,RESELLER,f08c47fec0942fa0
google.com,pub-6171158072399476,RESELLER,f08c47fec0942fa0
google.com,pub-6327743893410164,RESELLER,f08c47fec0942fa0
google.com,pub-6346866704322274,RESELLER,f08c47fec0942fa0
google.com,pub-6737831451703759,RESELLER,f08c47fec0942fa0
google.com,pub-6955356997745025,RESELLER,f08c47fec0942fa0
google.com,pub-7214269347534569,RESELLER,f08c47fec0942fa0
google.com,pub-7279990999620104,RESELLER,f08c47fec0942fa0
google.com,pub-7380110803033940,RESELLER,f08c47fec0942fa0
google.com,pub-7646760646298479,RESELLER,f08c47fec0942fa0
google.com,pub-7713554155373117,RESELLER,f08c47fec0942fa0
google.com,pub-7931534301963103,RESELLER,f08c47fec0942fa0
google.com,pub-7955322303263231,RESELLER,f08c47fec0942fa0
google.com,pub-8236665230625728,RESELLER,f08c47fec0942fa0
google.com,pub-8311230774743632,RESELLER,f08c47fec0942fa0
google.com,pub-8510051374873744,RESELLER,f08c47fec0942fa0
google.com,pub-8728712656723745,RESELLER,f08c47fec0942fa0
google.com,pub-8875007976898779,RESELLER,f08c47fec0942fa0
google.com,pub-9051175444104661,RESELLER,f08c47fec0942fa0
google.com,pub-9137573150947883,RESELLER,f08c47fec0942fa0
google.com,pub-9202259069253639,RESELLER,f08c47fec0942fa0
google.com,pub-9329149277210275,RESELLER,f08c47fec0942fa0
google.com,pub-9469244224896360,RESELLER,f08c47fec0942fa0
google.com,pub-9685734445476814,RESELLER,f08c47fec0942fa0
growintech.co,104673,RESELLER
growintech.co,2723d092b63885e0d7c260cc007e8b9d9364,RESELLER
hyperad.tech,20,RESELLER
hyperad.tech,250,RESELLER
hyperad.tech,35,RESELLER
hyperad.tech,41,RESELLER
ignitemediatech.com,pub_61112,RESELLER
ignitemediatech.com,pub_61122,RESELLER
imds.tv,82542,RESELLER,ae6c32151e71f19d
imds.tv,82557,RESELLER,ae6c32151e71f19d
improvedigital.com,1114,RESELLER
improvedigital.com,1210,RESELLER
improvedigital.com,1221,RESELLER
improvedigital.com,1331,RESELLER
improvedigital.com,1341,RESELLER
improvedigital.com,1366,RESELLER
improvedigital.com,1408,RESELLER
improvedigital.com,1532,RESELLER
improvedigital.com,1662,RESELLER
improvedigital.com,1699,RESELLER
improvedigital.com,1751,RESELLER
improvedigital.com,1805,RESELLER
improvedigital.com,1849,RESELLER
improvedigital.com,2050,RESELLER
improvedigital.com,2081,RESELLER
improvedigital.com,2093,RESELLER
improvedigital.com,2110,RESELLER
improvedigital.com,2162,RESELLER
improvedigital.com,2163,RESELLER
improvedigital.com,2173,RESELLER
improvedigital.com,2175,RESELLER
improvedigital.com,2176,RESELLER
improvedigital.com,2177,RESELLER
improvedigital.com,2178,RESELLER
improvedigital.com,2180,RESELLER
improvedigital.com,2299,RESELLER
improvedigital.com,2316,RESELLER
indexexchange.com,182257,RESELLER,50b1c356f2c5c8fc
indexexchange.com,183920,RESELLER,50b1c356f2c5c8fc
indexexchange.com,184349,RESELLER,50b1c356f2c5c8fc
indexexchange.com,185578,RESELLER,50b1c356f2c5c8fc
indexexchange.com,186081,RESELLER,50b1c356f2c5c8fc
indexexchange.com,186112,RESELLER,50b1c356f2c5c8fc
indexexchange.com,192410,RESELLER,50b1c356f2c5c8fc
indexexchange.com,197137,RESELLER,50b1c356f2c5c8fc
indexexchange.com,199195,RESELLER,50b1c356f2c5c8fc
indexexchange.com,199442,RESELLER,50b1c356f2c5c8fc
inmobi.com,062029933580429f9920bad476d8d70a,RESELLER,83e75a7ae333ca9d
inmobi.com,10cb8e3522f74a7a9dce1659b92ea6cb,RESELLER,83e75a7ae333ca9d
inmobi.com,22e5354e453f49348325184e25464adb,RESELLER
inmobi.com,22e5354e453f49348325184e25464adb,RESELLER,83e75a7ae333ca9d
inmobi.com,2ce1d976516340a49b12e59749659864,RESELLER,83e75a7ae333ca9d
inmobi.com,300bb0e4e3704cd495136c09d57448b9,RESELLER,83e75a7ae333ca9d
inmobi.com,333ad8b1c9e647b482fcf7a78c0c0202,RESELLER,83e75a7ae333ca9d
inmobi.com,33f042dcf10549ae9fb1b9e2ee0ecfc3,RESELLER,83e75a7ae333ca9d
inmobi.com,3786df74cece49a18603cf9c647c32b6,RESELLER,83e75a7ae333ca9d
inmobi.com,3a4f7da341dd490cbb7dde02b126275e,RESELLER,83e75a7ae333ca9d
inmobi.com,3af76ebd8ed44d04b01d827c6f3bb5b4,RESELLER,83e75a7ae333ca9d
inmobi.com,3d21f320cacc43f19449fb7f71b57fe2,RESELLER,83e75a7ae333ca9d
inmobi.com,55049d2e109d4ac1820ca1432dda4e13,RESELLER,83e75a7ae333ca9d
inmobi.com,59c7922793a3477b9419f0854d1da7e9,RESELLER,83e75a7ae333ca9d
inmobi.com,5d2c913a0c5f4142acc7412723ee15d7,RESELLER,83e75a7ae333ca9d
inmobi.com,61d733c3779d43e590c51c8bc078e10c,RESELLER,83e75a7ae333ca9d
inmobi.com,6f4e0f593c2c4e5bb9d03d3042318ab0,RESELLER,83e75a7ae333ca9d
inmobi.com,787bf3e1c7a640cdb827be87880a26a3,RESELLER,83e75a7ae333ca9d
inmobi.com,7c9e112a810a4b639bb6af3fa397233e,RESELLER,83e75a7ae333ca9d
inmobi.com,8125dd4936e945f0a429c376c573e4ee,RESELLER,83e75a7ae333ca9d
inmobi.com,867c89bb53994aaeb9dae3ce75b03e78,RESELLER,83e75a7ae333ca9d
inmobi.com,885cf5b4969743dd85ede1c904f34aae,RESELLER,83e75a7ae333ca9d
inmobi.com,8db4f84a164540b887b178eb1a6e1721,RESELLER,83e75a7ae333ca9d
inmobi.com,9560caf77e0f4e14a9cd83cd9561de29,RESELLER,83e75a7ae333ca9d
inmobi.com,9db26b74b0cb43de95dcfcf712e9a587,RESELLER,83e75a7ae333ca9d
inmobi.com,a980ed60d7ea4bbabb6173d2cd9d4db9,RESELLER,83e75a7ae333ca9d
inmobi.com,a985e39014a94721a8e97c929d32ef9d,RESELLER,83e75a7ae333ca9d
inmobi.com,ab915bcef5b24940bf745f1a8f427bec,RESELLER,83e75a7ae333ca9d
inmobi.com,b164fef73b06493b92a9fae09941eef4,RESELLER,83e75a7ae333ca9d
inmobi.com,b649852ee8ef481ab4929d4a092a061b,RESELLER,83e75a7ae333ca9d
inmobi.com,b76e9bc9a7d3407fa84ce458f01e313d,RESELLER,83e75a7ae333ca9d
inmobi.com,be9b5cae1f084ffa86c0cf925101ef98,RESELLER,83e75a7ae333ca9d
inmobi.com,c1e6d3502da64ebaa3ad0e4a4be15f11,RESELLER,83e75a7ae333ca9d
inmobi.com,ddb41d8a9f434a918d05a0fc9999d9f9,RESELLER,83e75a7ae333ca9d
inmobi.com,e571e03c05664d25becfd1174c7e0dbd,RESELLER,83e75a7ae333ca9d
inmobi.com,e8d533f50f9e4c2fbcecb0b8ed66d526,RESELLER,83e75a7ae333ca9d
inmobi.com,eb599497e3d345d19364cc841f39de31,RESELLER,83e75a7ae333ca9d
inmobi.com,ec6f6ceb8bb1440ba5455644ec96c275,RESELLER,83e75a7ae333ca9d
inmobi.com,ee8285fb514c4c42a42a5c71dd6e3c62,RESELLER,83e75a7ae333ca9d
inmobi.com,ef083d721beb4c0f8776ced01e262c03,RESELLER,83e75a7ae333ca9d
inmobi.com,f3924290136e4129a5c082ff982c3a58,RESELLER,83e75a7ae333ca9d
inmobi.com,f4b340bf9ec148c48892790edffe4f91,RESELLER,83e75a7ae333ca9d
inmobi.com,f685b4a4ee9e4861a0601f73215b3c4b,RESELLER,83e75a7ae333ca9d
inmobi.com,f71b28e30a8249c3b08a9bca1a5cfbb7,RESELLER,83e75a7ae333ca9d
inmobi.com,fe4db13744124582a6a2b18964560ce7,RESELLER,83e75a7ae333ca9d
instal.com,5a59277b-91e8-4b5c-a4b5-ee9a7a6c0644,RESELLER
iqzone.com,IQ39,RESELLER
iqzone.com,IQ97,RESELLER
ironsrc.com,186063,RESELLER,79929e88b2ba73bc
ironsrc.com,220701,RESELLER,79929e88b2ba73bc
ironsrc.com,228853,RESELLER,79929e88b2ba73bc
ironsrc.com,231453,RESELLER,79929e88b2ba73bc
ironsrc.com,245431,RESELLER,79929e88b2ba73bc
ironsrc.com,402176,RESELLER,79929e88b2ba73bc
keenkale.com,1957,RESELLER
keenkale.com,2221,RESELLER
keenkale.com,8987,RESELLER
keenkale.com,93965,RESELLER,6c1c00b269ccdfa4
lemmatechnologies.com,144,RESELLER,7829010c5bebd1fb
lemmatechnologies.com,362,RESELLER,7829010c5bebd1fb
lemmatechnologies.com,552,RESELLER,7829010c5bebd1fb
levelx.tv,1192944,RESELLER
liftoff.io,561e8d956b8d90f61a003219,RESELLER,c107d686becd2d77
lijit.com,258942-eb,RESELLER,fafdf38b16bf6b2b
lijit.com,258942,RESELLER,fafdf38b16bf6b2b
lijit.com,273644,RESELLER,fafdf38b16bf6b2b
lijit.com,310770,RESELLER,fafdf38b16bf6b2b
lijit.com,375328,RESELLER,fafdf38b16bf6b2b
lijit.com,380632,RESELLER,fafdf38b16bf6b2b
lijit.com,411121,RESELLER,fafdf38b16bf6b2b
limpid.tv,203708,RESELLER
lkqd.net,1100053828,RESELLER,59c49fa9598a0117
lkqd.net,647,RESELLER,59c49fa9598a0117
lkqd.net,654,RESELLER,59c49fa9598a0117
loopme.com,10287,RESELLER
loopme.com,10999,RESELLER,6c8d5f95897a5a3b
loopme.com,11322,RESELLER
loopme.com,11322,RESELLER,6c8d5f95897a5a3b
loopme.com,11347,RESELLER,6c8d5f95897a5a3b
loopme.com,11414,RESELLER,6c8d5f95897a5a3b
loopme.com,11421,RESELLER,6c8d5f95897a5a3b
loopme.com,11424,RESELLER,6c8d5f95897a5a3b
loopme.com,11426,RESELLER,6c8d5f95897a5a3b
loopme.com,11442,RESELLER,6c8d5f95897a5a3b
loopme.com,11483,RESELLER,6c8d5f95897a5a3b
loopme.com,11557,RESELLER,6c8d5f95897a5a3b
loopme.com,11561,RESELLER,6c8d5f95897a5a3b
loopme.com,2896,RESELLER,6c8d5f95897a5a3b
loopme.com,5679,RESELLER,6c8d5f95897a5a3b
loopme.com,9621,RESELLER,6c8d5f95897a5a3b
loopme.com,9718,RESELLER,6c8d5f95897a5a3b
lunamedia.io,32e73ac5f2eb430dacd4e3773e5fdc8e,RESELLER,524ecb396915caaf
lunamedia.io,5ad539e09ec9485cab7b81d68a5bd757,RESELLER,524ecb396915caaf
lunamedia.io,95ed51edc1cb499baaf3476fcb6fa463,RESELLER,524ecb396915caaf
lunamedia.io,bfacf5e017bb11edb41173b0ca2c748c,RESELLER,524ecb396915caaf
mars.media,1010421,RESELLER,8624339f102fb076
mars.media,1010422,RESELLER,8624339f102fb076
mars.media,1010463,RESELLER,8624339f102fb076
mars.media,107876,RESELLER,8624339f102fb076
media.net,8CU77A9X2,RESELLER
media.net,8CUHCR0TP,RESELLER
media.net,8CUN37DCC,RESELLER
media.net,8CUO7P3WK,RESELLER
media.net,8CUP1N1F2,RESELLER
media.net,8CUVN6879,RESELLER
media.net,8CUZ1MK22,RESELLER
meitu.com,186,RESELLER
meitu.com,282,RESELLER
meitu.com,654,RESELLER
meitu.com,699,RESELLER
mintegral.com,10005,RESELLER
mintegral.com,10026,RESELLER
mintegral.com,10030,RESELLER
mintegral.com,10038,RESELLER
mintegral.com,10043,RESELLER,0aeed750c80d6423
mintegral.com,11154,RESELLER
mobupps.com,c74d97b01eae257e44aa9d5bade97baf7726,RESELLER
nobid.io,22476660912,RESELLER
nobid.io,22501800598,RESELLER
nobid.io,22575233870,RESELLER
notsy.io,4a4dfd54-99f3-4c03-b706-c10418e59114,RESELLER
olaex.biz,100039,RESELLER
onairglobal.com,4357629,RESELLER
onetag.com,59a18369e249bfb,RESELLER
onetag.com,59aa7be4921bac8,RESELLER
onetag.com,59d216e971852f2,RESELLER
onetag.com,5d1628750185ace,RESELLER
onetag.com,5d49f482552c9b6,RESELLER
onetag.com,6d9d434caf08ff8,RESELLER
onetag.com,73720b89bbda622,RESELLER
onetag.com,770a440e65869c2,RESELLER
openx.com,537149888,RESELLER,6a698e2ec38604c6
openx.com,537152826,RESELLER,6a698e2ec38604c6
openx.com,537153564,RESELLER,6a698e2ec38604c6
openx.com,538959099,RESELLER,6a698e2ec38604c6
openx.com,539249210,RESELLER,6a698e2ec38604c6
openx.com,539315083,RESELLER,6a698e2ec38604c6
openx.com,539363588,RESELLER,6a698e2ec38604c6
openx.com,539472296,RESELLER,6a698e2ec38604c6
openx.com,539924617,RESELLER,6a698e2ec38604c6
openx.com,540031703,RESELLER,6a698e2ec38604c6
openx.com,540191398,RESELLER,6a698e2ec38604c6
openx.com,540280728,RESELLER,6a698e2ec38604c6
openx.com,540298543,RESELLER,6a698e2ec38604c6
openx.com,540311484,RESELLER,6a698e2ec38604c6
openx.com,540326226,RESELLER,6a698e2ec38604c6
openx.com,540396775,RESELLER,6a698e2ec38604c6
openx.com,540421297,RESELLER,6a698e2ec38604c6
openx.com,540679900,RESELLER,6a698e2ec38604c6
openx.com,540773939,RESELLER,6a698e2ec38604c6
openx.com,540838151,RESELLER,6a698e2ec38604c6
openx.com,540857594,RESELLER,6a698e2ec38604c6
openx.com,540866936,RESELLER,6a698e2ec38604c6
openx.com,541031350,RESELLER,6a698e2ec38604c6
openx.com,541177116,RESELLER,6a698e2ec38604c6
openx.com,542281387,RESELLER,6a698e2ec38604c6
openx.com,543878511,RESELLER,6a698e2ec38604c6
openx.com,544096208,RESELLER,6a698e2ec38604c6
openx.com,558780973,RESELLER,6a698e2ec38604c6
opera.com,pub4261820774272,RESELLER,55a0c5fd61378de3
opera.com,pub4444433466368,RESELLER,55a0c5fd61378de3
opera.com,pub5296098761088,RESELLER,55a0c5fd61378de3
opera.com,pub5449961587776,RESELLER,55a0c5fd61378de3
opera.com,pub5959307917824,RESELLER,55a0c5fd61378de3
opera.com,pub6148735850944,RESELLER,55a0c5fd61378de3
opera.com,pub6381284707712,RESELLER,55a0c5fd61378de3
opera.com,pub6390586105984,RESELLER,55a0c5fd61378de3
opera.com,pub6650235485952,RESELLER,55a0c5fd61378de3
opera.com,pub6794361378752,RESELLER,55a0c5fd61378de3
opera.com,pub6843437470464,RESELLER,55a0c5fd61378de3
opera.com,pub7507776842240,RESELLER,55a0c5fd61378de3
opera.com,pub7839419107776,RESELLER,55a0c5fd61378de3
opera.com,pub8779257021376,RESELLER,55a0c5fd61378de3
opera.com,pub8862575251776,RESELLER,55a0c5fd61378de3
pokkt.com,5536,RESELLER,c45702d9311e25fd
pokkt.com,5886,RESELLER,c45702d9311e25fd
pokkt.com,7606,RESELLER,c45702d9311e25fd
prequel.tv,514,RESELLER
pubmatic.com,137711,RESELLER,5d62403b186f2ace
pubmatic.com,148803,RESELLER,5d62403b186f2ace
pubmatic.com,154037,RESELLER,5d62403b186f2ace
pubmatic.com,155967,RESELLER,5d62403b186f2ace
pubmatic.com,155975,RESELLER,5d62403b186f2ace
pubmatic.com,156177,RESELLER,5d62403b186f2ace
pubmatic.com,156212,RESELLER,5d62403b186f2ace
pubmatic.com,156425,RESELLER,5d62403b186f2ace
pubmatic.com,156439,RESELLER,5d62403b186f2ace
pubmatic.com,156451,RESELLER,5d62403b186f2ace
pubmatic.com,156494,RESELLER,5d62403b186f2ace
pubmatic.com,156517,RESELLER,5d62403b186f2ace
pubmatic.com,156520,RESELLER,5d62403b186f2ace
pubmatic.com,156631,RESELLER,5d62403b186f2ace
pubmatic.com,156835,RESELLER,5d62403b186f2ace
pubmatic.com,156931,RESELLER,5d62403b186f2ace
pubmatic.com,157097,RESELLER,5d62403b186f2ace
pubmatic.com,157113,RESELLER,5d62403b186f2ace
pubmatic.com,157150,RESELLER,5d62403b186f2ace
pubmatic.com,157384,RESELLER,5d62403b186f2ace
pubmatic.com,157558,RESELLER,5d62403b186f2ace
pubmatic.com,157654,RESELLER,5d62403b186f2ace
pubmatic.com,157800,RESELLER,5d62403b186f2ace
pubmatic.com,158060,RESELLER,5d62403b186f2ace
pubmatic.com,158100,RESELLER,5d62403b186f2ace
pubmatic.com,158118,RESELLER,5d62403b186f2ace
pubmatic.com,158154,RESELLER,5d62403b186f2ace
pubmatic.com,158271,RESELLER,5d62403b186f2ace
pubmatic.com,158362,RESELLER,5d62403b186f2ace
pubmatic.com,158408,RESELLER,5d62403b186f2ace
pubmatic.com,158565,RESELLER,5d62403b186f2ace
pubmatic.com,158753,RESELLER,5d62403b186f2ace
pubmatic.com,158858,RESELLER,5d62403b186f2ace
pubmatic.com,159035,RESELLER,5d62403b186f2ace
pubmatic.com,159087,RESELLER,5d62403b186f2ace
pubmatic.com,159277,RESELLER,5d62403b186f2ace
pubmatic.com,159351,RESELLER,5d62403b186f2ace
pubmatic.com,159499,RESELLER,5d62403b186f2ace
pubmatic.com,159501,RESELLER,5d62403b186f2ace
pubmatic.com,159542,RESELLER,5d62403b186f2ace
pubmatic.com,159626,RESELLER,5d62403b186f2ace
pubmatic.com,159668,RESELLER,5d62403b186f2ace
pubmatic.com,159831,RESELLER,5d62403b186f2ace
pubmatic.com,159846,RESELLER,5d62403b186f2ace
pubmatic.com,159855,RESELLER,5d62403b186f2ace
pubmatic.com,159897,RESELLER,5d62403b186f2ace
pubmatic.com,159906,RESELLER,5d62403b186f2ace
pubmatic.com,160006,RESELLER,5d62403b186f2ace
pubmatic.com,160096,RESELLER,5d62403b186f2ace
pubmatic.com,160113,RESELLER,5d62403b186f2ace
pubmatic.com,160145,RESELLER,5d62403b186f2ace
pubmatic.com,160194,RESELLER,5d62403b186f2ace
pubmatic.com,160195,RESELLER,5d62403b186f2ace
pubmatic.com,160318,RESELLER,5d62403b186f2ace
pubmatic.com,160456,RESELLER,5d62403b186f2ace
pubmatic.com,160536,RESELLER,5d62403b186f2ace
pubmatic.com,160846,RESELLER,5d62403b186f2ace
pubmatic.com,160974,RESELLER,5d62403b186f2ace
pubmatic.com,160989,RESELLER,5d62403b186f2ace
pubmatic.com,160993,RESELLER,5d62403b186f2ace
pubmatic.com,161018,RESELLER,5d62403b186f2ace
pubmatic.com,161058,RESELLER,5d62403b186f2ace
pubmatic.com,161136,RESELLER,5d62403b186f2ace
pubmatic.com,161144,RESELLER,5d62403b186f2ace
pubmatic.com,161155,RESELLER,5d62403b186f2ace
pubmatic.com,161156,RESELLER,5d62403b186f2ace
pubmatic.com,161165,RESELLER,5d62403b186f2ace
pubmatic.com,161335,RESELLER,5d62403b186f2ace
pubmatic.com,161344,RESELLER,5d62403b186f2ace
pubmatic.com,161372,RESELLER,5d62403b186f2ace
pubmatic.com,161373,RESELLER,5d62403b186f2ace
pubmatic.com,161562,RESELLER,5d62403b186f2ace
pubmatic.com,161582,RESELLER,5d62403b186f2ace
pubmatic.com,161648,RESELLER,5d62403b186f2ace
pubmatic.com,161748,RESELLER,5d62403b186f2ace
pubmatic.com,161771,RESELLER,5d62403b186f2ace
pubmatic.com,161858,RESELLER,5d62403b186f2ace
pubmatic.com,161970,RESELLER,5d62403b186f2ace
pubmatic.com,162017,RESELLER,5d62403b186f2ace
pubmatic.com,162099,RESELLER,5d62403b186f2ace
pubmatic.com,162179,RESELLER,5d62403b186f2ace
pubmatic.com,162195,RESELLER,5d62403b186f2ace
pubmatic.com,162223,RESELLER,5d62403b186f2ace
pubmatic.com,162402,RESELLER,5d62403b186f2ace
pubmatic.com,162449,RESELLER,5d62403b186f2ace
pubmatic.com,162518,RESELLER,5d62403b186f2ace
pubmatic.com,162519,RESELLER,5d62403b186f2ace
pubmatic.com,162520,RESELLER,5d62403b186f2ace
pubmatic.com,162528,RESELLER,5d62403b186f2ace
pubmatic.com,162882,RESELLER,5d62403b186f2ace
pubmatic.com,163075,RESELLER,5d62403b186f2ace
pubmatic.com,163319,RESELLER,5d62403b186f2ace
pubmatic.com,163516,RESELLER,5d62403b186f2ace
pubmatic.com,163517,RESELLER,5d62403b186f2ace
pubnative.net,1003601,RESELLER,d641df8625486a7b
pubnative.net,1006576,RESELLER,d641df8625486a7b
pubnative.net,1006856,RESELLER,d641df8625486a7b
pubnative.net,1006936,RESELLER,d641df8625486a7b
pubnative.net,1006955,RESELLER,d641df8625486a7b
pubnative.net,1007007,RESELLER,d641df8625486a7b
pubnative.net,1007040,RESELLER,d641df8625486a7b
pubnative.net,1007063,RESELLER,d641df8625486a7b
pubnative.net,1007249,RESELLER,d641df8625486a7b
pubnative.net,1007262,RESELLER,d641df8625486a7b
pubnative.net,1007303,RESELLER,d641df8625486a7b
pubnative.net,1007485,RESELLER,d641df8625486a7b
pubnative.net,1007501,RESELLER,d641df8625486a7b
pubnative.net,1007563,RESELLER,d641df8625486a7b
pubnative.net,1007741,RESELLER,d641df8625486a7b
pubnative.net,1008061,RESELLER,d641df8625486a7b
pubnative.net,1008585,RESELLER,d641df8625486a7b
resetdigital.co,125,RESELLER
rhebus.works,4962256775,RESELLER
rhebus.works,6206908708,RESELLER
rhebus.works,6654491103,RESELLER
rhebus.works,8511421847,RESELLER
rhythmone.com,1605779867,RESELLER,a670c89d4a324e47
rhythmone.com,3383599585,RESELLER,a670c89d4a324e47
rhythmone.com,3664049593,RESELLER,a670c89d4a324e47
rhythmone.com,4173858586,RESELLER,a670c89d4a324e47
rhythmone.com,4270213217,RESELLER,a670c89d4a324e47
rhythmone.com,5336134699710583737,RESELLER,a670c89d4a324e47
risecodes.com,63832beef8189a00015cb6d3,RESELLER
rubiconproject.com,11006,RESELLER,0bfd66d529a55807
rubiconproject.com,11726,RESELLER,0bfd66d529a55807
rubiconproject.com,12186,RESELLER,0bfd66d529a55807
rubiconproject.com,12266,RESELLER,0bfd66d529a55807
rubiconproject.com,13132,RESELLER,0bfd66d529a55807
rubiconproject.com,13136,RESELLER,0bfd66d529a55807
rubiconproject.com,13626,RESELLER,0bfd66d529a55807
rubiconproject.com,13856,RESELLER,0bfd66d529a55807
rubiconproject.com,13918,RESELLER,0bfd66d529a55807
rubiconproject.com,14558,RESELLER,0bfd66d529a55807
rubiconproject.com,15268,RESELLER,0bfd66d529a55807
rubiconproject.com,15278,RESELLER,0bfd66d529a55807
rubiconproject.com,15526,RESELLER,0bfd66d529a55807
rubiconproject.com,16114,RESELLER,0bfd66d529a55807
rubiconproject.com,16418,RESELLER,0bfd66d529a55807
rubiconproject.com,16834,RESELLER,0bfd66d529a55807
rubiconproject.com,17178,RESELLER,0bfd66d529a55807
rubiconproject.com,17250,RESELLER,0bfd66d529a55807
rubiconproject.com,17262,RESELLER,0bfd66d529a55807
rubiconproject.com,17328,RESELLER,0bfd66d529a55807
rubiconproject.com,17352,RESELLER,0bfd66d529a55807
rubiconproject.com,17608,RESELLER,0bfd66d529a55807
rubiconproject.com,17960,RESELLER,0bfd66d529a55807
rubiconproject.com,18020,RESELLER,0bfd66d529a55807
rubiconproject.com,18364,RESELLER,0bfd66d529a55807
rubiconproject.com,20014,RESELLER,0bfd66d529a55807
rubiconproject.com,20050,RESELLER,0bfd66d529a55807
rubiconproject.com,20086,RESELLER,0bfd66d529a55807
rubiconproject.com,20744,RESELLER,0bfd66d529a55807
rubiconproject.com,22412,RESELLER,0bfd66d529a55807
rubiconproject.com,22884,RESELLER,0bfd66d529a55807
rubiconproject.com,23644,RESELLER,0bfd66d529a55807
rubiconproject.com,23822,RESELLER,0bfd66d529a55807
rubiconproject.com,23980,RESELLER,0bfd66d529a55807
rubiconproject.com,23986,RESELLER,0bfd66d529a55807
rubiconproject.com,24170,RESELLER,0bfd66d529a55807
rubiconproject.com,24174,RESELLER,0bfd66d529a55807
rubiconproject.com,24228,RESELLER,0bfd66d529a55807
rubiconproject.com,24362,RESELLER,0bfd66d529a55807
rubiconproject.com,24448,RESELLER,0bfd66d529a55807
rubiconproject.com,24468,RESELLER,0bfd66d529a55807
rubiconproject.com,24520,RESELLER,0bfd66d529a55807
rubiconproject.com,24526,RESELLER,0bfd66d529a55807
rubiconproject.com,24538,RESELLER,0bfd66d529a55807
rubiconproject.com,24600,RESELLER,0bfd66d529a55807
rubiconproject.com,24606,RESELLER,0bfd66d529a55807
rubiconproject.com,24752,RESELLER,0bfd66d529a55807
rubiconproject.com,24864,RESELLER,0bfd66d529a55807
rubiconproject.com,24908,RESELLER,0bfd66d529a55807
rubiconproject.com,24914,RESELLER,0bfd66d529a55807
rubiconproject.com,24960,RESELLER,0bfd66d529a55807
rubiconproject.com,24986,RESELLER,0bfd66d529a55807
rubiconproject.com,25060,RESELLER,0bfd66d529a55807
rubiconproject.com,25064,RESELLER,0bfd66d529a55807
rubiconproject.com,25688,RESELLER,0bfd66d529a55807
rubiconproject.com,25722,RESELLER,0bfd66d529a55807
saharmedia.net,1683571,RESELLER
saharmedia.net,1683573,RESELLER
saharmedia.net,1683574,RESELLER
saharmedia.net,1683576,RESELLER
saharmedia.net,1683577,RESELLER
saharmedia.net,1683591,RESELLER
saharmedia.net,1683596,RESELLER
saharmedia.net,1683597,RESELLER
saharmedia.net,1683858,RESELLER
sharethrough.com,23830661,RESELLER,d53b998a7bd4ecd2
sharethrough.com,3blZyYks,RESELLER,d53b998a7bd4ecd2
sharethrough.com,6qlnf8SY,RESELLER,d53b998a7bd4ecd2
sharethrough.com,7144eb80,RESELLER,d53b998a7bd4ecd2
sharethrough.com,a5d8c727,RESELLER,d53b998a7bd4ecd2
sharethrough.com,K5WDGAsP,RESELLER,d53b998a7bd4ecd2
sharethrough.com,LNtcDgIM,RESELLER,d53b998a7bd4ecd2
sharethrough.com,OAW69Fon,RESELLER,d53b998a7bd4ecd2
sharethrough.com,pLL9cLon,RESELLER,d53b998a7bd4ecd2
sharethrough.com,UHEPsr7T,RESELLER,d53b998a7bd4ecd2
sharethrough.com,UPD4WJlm,RESELLER,d53b998a7bd4ecd2
sharethrough.com,ZqrIAHsE,RESELLER,d53b998a7bd4ecd2
silvermob.com,357,RESELLER
silvermob.com,419,RESELLER
singularads,895023,RESELLER
smaato.com,1100004890,RESELLER,07bcf65f187117b4
smaato.com,1100040398,RESELLER,07bcf65f187117b4
smaato.com,1100044045,RESELLER,07bcf65f187117b4
smaato.com,1100044156,RESELLER,07bcf65f187117b4
smaato.com,1100044650,RESELLER,07bcf65f187117b4
smaato.com,1100046578,RESELLER,07bcf65f187117b4
smaato.com,1100049757,RESELLER,07bcf65f187117b4
smaato.com,1100050739,RESELLER,07bcf65f187117b4
smaato.com,1100051000,RESELLER,07bcf65f187117b4
smaato.com,1100052485,RESELLER,07bcf65f187117b4
smartadserver.com,1692,RESELLER,060d053dcf45cbf3
smartadserver.com,3020,RESELLER,060d053dcf45cbf3
smartadserver.com,3117,RESELLER,060d053dcf45cbf3
smartadserver.com,3160,RESELLER,060d053dcf45cbf3
smartadserver.com,3232,RESELLER,060d053dcf45cbf3
smartadserver.com,3439,RESELLER,060d053dcf45cbf3
smartadserver.com,3564,RESELLER,060d053dcf45cbf3
smartadserver.com,3713,RESELLER,060d053dcf45cbf3
smartadserver.com,3797,RESELLER,060d053dcf45cbf3
smartadserver.com,3817,RESELLER,060d053dcf45cbf3
smartadserver.com,3864,RESELLER,060d053dcf45cbf3
smartadserver.com,3896,RESELLER,060d053dcf45cbf3
smartadserver.com,3964,RESELLER,060d053dcf45cbf3
smartadserver.com,4016,RESELLER,060d053dcf45cbf3
smartadserver.com,4039,RESELLER,060d053dcf45cbf3
smartadserver.com,4052,RESELLER,060d053dcf45cbf3
smartadserver.com,4071,RESELLER,060d053dcf45cbf3
smartadserver.com,4111,RESELLER,060d053dcf45cbf3
smartadserver.com,4125,RESELLER,060d053dcf45cbf3
smartadserver.com,4140,RESELLER,060d053dcf45cbf3
smartadserver.com,4194-OB,RESELLER,060d053dcf45cbf3
smartadserver.com,4194,RESELLER,060d053dcf45cbf3
smartadserver.com,4202,RESELLER,060d053dcf45cbf3
smartadserver.com,4210,RESELLER,060d053dcf45cbf3
smartadserver.com,4237,RESELLER,060d053dcf45cbf3
smartadserver.com,4297,RESELLER,060d053dcf45cbf3
smartadserver.com,4322,RESELLER,060d053dcf45cbf3
smartadserver.com,4343,RESELLER,060d053dcf45cbf3
smartadserver.com,4344,RESELLER,060d053dcf45cbf3
smartadserver.com,4346,RESELLER,060d053dcf45cbf3
smartadserver.com,4354,RESELLER,060d053dcf45cbf3
smartadserver.com,4383,RESELLER,060d053dcf45cbf3
smartadserver.com,4396,RESELLER,060d053dcf45cbf3
smartadserver.com,4408,RESELLER,060d053dcf45cbf3
smartadserver.com,4444,RESELLER,060d053dcf45cbf3
smartadserver.com,4456,RESELLER,060d053dcf45cbf3
smartadserver.com,4467,RESELLER,060d053dcf45cbf3
smartadserver.com,4483,RESELLER,060d053dcf45cbf3
smartadserver.com,4490,RESELLER,060d053dcf45cbf3
smartadserver.com,4637,RESELLER,060d053dcf45cbf3
smartadserver.com,4647,RESELLER,060d053dcf45cbf3
smartclip.net,12358,RESELLER
smartclip.net,12422,RESELLER
smartclip.net,14275,RESELLER
smartclip.net,411,RESELLER
smartclip.net,8153,RESELLER
smartclip.net,9394,RESELLER
smartstream.tv,417,RESELLER
smartstream.tv,667,RESELLER
smartstream.tv,673,RESELLER
smartstream.tv,675,RESELLER
smartstream.tv,679,RESELLER
smartyads.com,10,RESELLER,fd2bde0ff2e62c5d
smartyads.com,100034,RESELLER,fd2bde0ff2e62c5d
smartyads.com,100115,RESELLER,fd2bde0ff2e62c5d
smartyads.com,355,RESELLER,fd2bde0ff2e62c5d
smartyads.com,368,RESELLER,fd2bde0ff2e62c5d
smartyads.com,897,RESELLER,fd2bde0ff2e62c5d
sonobi.com,2b51f34067,RESELLER,d1a215d9eb5aee9e
sonobi.com,4467dce497,RESELLER,d1a215d9eb5aee9e
sonobi.com,5b003395a5,RESELLER,d1a215d9eb5aee9e
sonobi.com,71169bd4a5,RESELLER,d1a215d9eb5aee9e
sonobi.com,7b37f8ccbc,RESELLER,d1a215d9eb5aee9e
sonobi.com,7f5fa520f8,RESELLER,d1a215d9eb5aee9e
sonobi.com,8efb591506,RESELLER,d1a215d9eb5aee9e
sonobi.com,ac6f1a9ded,RESELLER,d1a215d9eb5aee9e
sonobi.com,cc3858f35e,RESELLER,d1a215d9eb5aee9e
sonobi.com,eaec54c63f,RESELLER,d1a215d9eb5aee9e
sonobi.com,f8813fc801,RESELLER,d1a215d9eb5aee9e
spotim.market,4446666,RESELLER,077e5f709d15bdbb
spotx.tv,117872,RESELLER,7842df1d2fe2db34
spotx.tv,149886,RESELLER,7842df1d2fe2db34
spotx.tv,71426,RESELLER,7842df1d2fe2db34
spotxchange.com,307720,RESELLER,7842df1d2fe2db34
ssp.e-volution.ai,AJxF6R111a9M6CaTvK,RESELLER
ssp.e-volution.ai,AJxF6R189a9M6CaTvK,RESELLER
ssp.e-volution.ai,AJxF6R396a9M6CaTvK,RESELLER
start.io,ago,RESELLER
start.io,inm,RESELLER
streambidmedia.com,1783651,RESELLER
streambidmedia.com,1783652,RESELLER
streambidmedia.com,1783654,RESELLER
streambidmedia.com,1783655,RESELLER
streambidmedia.com,1783661,RESELLER
streambidmedia.com,1783662,RESELLER
streambidmedia.com,1783664,RESELLER
synacor.com,82171,RESELLER,e108f11b2cdf7d5b
synacor.com,82542,RESELLER,e108f11b2cdf7d5b
target.my.com,12723589,RESELLER
targetspot.com,227,RESELLER,feb28ed826dcf532
targetspot.com,297,RESELLER,feb28ed826dcf532
thebrave.io,1234594,RESELLER,c25b2154543746ac
thebrave.io,1234596,RESELLER,c25b2154543746ac
thebrave.io,1234632,RESELLER,c25b2154543746ac
thebrave.io,1234633,RESELLER,c25b2154543746ac
thebrave.io,1234634,RESELLER,c25b2154543746ac
thebrave.io,9840732,RESELLER,c25b2154543746ac
themediagrid.com,6ZKABG,RESELLER,35d5010d7789b49d
themediagrid.com,8RYHC4,RESELLER,35d5010d7789b49d
themediagrid.com,A249ED,RESELLER,35d5010d7789b49d
themediagrid.com,B8N9YH,RESELLER,35d5010d7789b49d
themediagrid.com,FH3TKJ,RESELLER,35d5010d7789b49d
themediagrid.com,JTQKMP,RESELLER,35d5010d7789b49d
themediagrid.com,NG9STC,RESELLER,35d5010d7789b49d
themediagrid.com,PLTXGE,RESELLER,35d5010d7789b49d
themediagrid.com,Q1VB5D,RESELLER,35d5010d7789b49d
themediagrid.com,Q3KY5N,RESELLER,35d5010d7789b49d
themediagrid.com,R28I9J,RESELLER,35d5010d7789b49d
themediagrid.com,SWH94X,RESELLER,35d5010d7789b49d
tpmn.io,256,RESELLER
tpmn.io,368,RESELLER
tpmn.io,415,RESELLER
tpmn.io,532,RESELLER
triplelift.com,10223,RESELLER,6c33edb13117fd86
triplelift.com,10522,RESELLER,6c33edb13117fd86
triplelift.com,10763,RESELLER,6c33edb13117fd86
triplelift.com,11457,RESELLER,6c33edb13117fd86
triplelift.com,11472-EB,RESELLER,6c33edb13117fd86
triplelift.com,11472,RESELLER,6c33edb13117fd86
triplelift.com,11514,RESELLER,6c33edb13117fd86
triplelift.com,11515,RESELLER,6c33edb13117fd86
triplelift.com,11656,RESELLER,6c33edb13117fd86
triplelift.com,12158,RESELLER,6c33edb13117fd86
triplelift.com,12613,RESELLER,6c33edb13117fd86
triplelift.com,12652,RESELLER,6c33edb13117fd86
triplelift.com,12753,RESELLER,6c33edb13117fd86
triplelift.com,12884,RESELLER,6c33edb13117fd86
triplelift.com,12908,RESELLER,6c33edb13117fd86
triplelift.com,13011,RESELLER,6c33edb13117fd86
triplelift.com,13012,RESELLER,6c33edb13117fd86
triplelift.com,13042,RESELLER,6c33edb13117fd86
triplelift.com,13043,RESELLER,6c33edb13117fd86
triplelift.com,13203,RESELLER,6c33edb13117fd86
triplelift.com,2792,RESELLER,6c33edb13117fd86
triplelift.com,4291,RESELLER,6c33edb13117fd86
triplelift.com,5984,RESELLER,6c33edb13117fd86
triplelift.com,7505,RESELLER,6c33edb13117fd86
triplelift.com,8446,RESELLER,6c33edb13117fd86
triplelift.com,9544,RESELLER,6c33edb13117fd86
tritondigital.com,106423,RESELLER,19b4454d0b87b58b
uis.mobfox.com,1424,RESELLER,5529a3d1f59865be
uis.mobfox.com,1729,RESELLER,5529a3d1f59865be
uis.mobfox.com,1750,RESELLER,5529a3d1f59865be
undertone.com,4108,RESELLER
unity.com,1004715,RESELLER,96cabb5fbdde37a7
unrulymedia.com,4173858586,RESELLER,6f752381ad5ec0e5
unrulymedia.com,831638248788941126,RESELLER,6f752381ad5ec0e5
unrulymedia.com.com,3218195319,RESELLER,89ff185a4c4e857c
verve.com,14619,RESELLER,0c8f5958fc2d6270
verve.com,15290,RESELLER,0c8f5958fc2d6270
verve.com,15503,RESELLER,0c8f5958fc2d6270
video.unrulymedia.com,1058378980,RESELLER,6f752381ad5ec0e5
video.unrulymedia.com,115018688080045007,RESELLER,6f752381ad5ec0e5
video.unrulymedia.com,123476257,RESELLER,6f752381ad5ec0e5
video.unrulymedia.com,1286320118,RESELLER,6f752381ad5ec0e5
video.unrulymedia.com,1605779867,RESELLER,6f752381ad5ec0e5
video.unrulymedia.com,1659706078112225929,RESELLER,6f752381ad5ec0e5
video.unrulymedia.com,1995043903043949128,RESELLER,6f752381ad5ec0e5
video.unrulymedia.com,2099898025,RESELLER,6f752381ad5ec0e5
video.unrulymedia.com,2564526802,RESELLER,6f752381ad5ec0e5
video.unrulymedia.com,2565542050102043389,RESELLER,6f752381ad5ec0e5
video.unrulymedia.com,2613193077,RESELLER,6f752381ad5ec0e5
video.unrulymedia.com,2979066401945419350,RESELLER,6f752381ad5ec0e5
video.unrulymedia.com,2998024992842698585,RESELLER,6f752381ad5ec0e5
video.unrulymedia.com,3169196794,RESELLER,6f752381ad5ec0e5
video.unrulymedia.com,3195302599395609570,RESELLER,6f752381ad5ec0e5
video.unrulymedia.com,3218195319,RESELLER,6f752381ad5ec0e5
video.unrulymedia.com,3263072158,RESELLER,6f752381ad5ec0e5
video.unrulymedia.com,3383599585,RESELLER,6f752381ad5ec0e5
video.unrulymedia.com,3383599585,RESELLER,a670c89d4a324e47
video.unrulymedia.com,3460972209,RESELLER,6f752381ad5ec0e5
video.unrulymedia.com,3563866356,RESELLER,6f752381ad5ec0e5
video.unrulymedia.com,3630748062,RESELLER,a670c89d4a324e47
video.unrulymedia.com,3634565696,RESELLER,6f752381ad5ec0e5
video.unrulymedia.com,3664049593,RESELLER,6f752381ad5ec0e5
video.unrulymedia.com,3704396951,RESELLER,6f752381ad5ec0e5
video.unrulymedia.com,3751985810,RESELLER,6f752381ad5ec0e5
video.unrulymedia.com,3795567838,RESELLER,6f752381ad5ec0e5
video.unrulymedia.com,3880497124,RESELLER,6f752381ad5ec0e5
video.unrulymedia.com,3881266972,RESELLER,6f752381ad5ec0e5
video.unrulymedia.com,3891336054,RESELLER,6f752381ad5ec0e5
video.unrulymedia.com,4173858586,RESELLER,6f752381ad5ec0e5
video.unrulymedia.com,4201299756,RESELLER,6f752381ad5ec0e5
video.unrulymedia.com,4268206200,RESELLER,6f752381ad5ec0e5
video.unrulymedia.com,4270213217,RESELLER,6f752381ad5ec0e5
video.unrulymedia.com,4395089476839622266,RESELLER,6f752381ad5ec0e5
video.unrulymedia.com,441506511,RESELLER,6f752381ad5ec0e5
video.unrulymedia.com,4631344382657206988,RESELLER,6f752381ad5ec0e5
video.unrulymedia.com,5127265468568773826,RESELLER,6f752381ad5ec0e5
video.unrulymedia.com,5284234284830726400,RESELLER,6f752381ad5ec0e5
video.unrulymedia.com,564934834,RESELLER,6f752381ad5ec0e5
video.unrulymedia.com,636840648,RESELLER,6f752381ad5ec0e5
video.unrulymedia.com,682817271102171104,RESELLER,6f752381ad5ec0e5
video.unrulymedia.com,6934634821880853826,RESELLER,6f752381ad5ec0e5
video.unrulymedia.com,7093244032824963982,RESELLER,6f752381ad5ec0e5
video.unrulymedia.com,7121219929476774013,RESELLER,6f752381ad5ec0e5
video.unrulymedia.com,7267380105862376423,RESELLER,6f752381ad5ec0e5
video.unrulymedia.com,7823643795310613975,RESELLER,6f752381ad5ec0e5
video.unrulymedia.com,8130871856725242222,RESELLER,6f752381ad5ec0e5
video.unrulymedia.com,831638248788941126,RESELLER,6f752381ad5ec0e5
videoheroes.tv,212428,RESELLER,064bc410192443d8
videoheroes.tv,212459,RESELLER,064bc410192443d8
videoheroes.tv,212499,RESELLER,064bc410192443d8
videoheroes.tv,212550,RESELLER,064bc410192443d8
videoheroes.tv,212587,RESELLER,064bc410192443d8
vidoomy.com,2412786,RESELLER
vidoomy.com,6858194,RESELLER
vidoomy.com,7981862,RESELLER
vidoomy.com,9148331,RESELLER
visiblemeasures.com,1018,RESELLER
vungle.com,561e8d956b8d90f61a003219,RESELLER,c107d686becd2d77
webeyemob.com,70098,RESELLER
webeyemob.com,70101,RESELLER
webeyemob.com,70104,RESELLER
whildey.com,3373108160,RESELLER
xad.com,241,RESELLER,81cbf0a75a5e0e9a
xad.com,958,RESELLER,81cbf0a75a5e0e9a
xandr.com,12745,RESELLER,f5ab79cb980f11d1
xandr.com,13058,RESELLER,f5ab79cb980f11d1
xandr.com,13167,RESELLER,f5ab79cb980f11d1
xandr.com,13238,RESELLER,f5ab79cb980f11d1
xandr.com,13293,RESELLER,f5ab79cb980f11d1
xandr.com,13297,RESELLER,f5ab79cb980f11d1
xandr.com,13709,RESELLER,f5ab79cb980f11d1
xandr.com,13735,RESELLER,f5ab79cb980f11d1
xandr.com,13799,RESELLER,f5ab79cb980f11d1
xandr.com,13898,RESELLER,f5ab79cb980f11d1
xandr.com,13955,RESELLER,f5ab79cb980f11d1
xandr.com,14083,RESELLER,f5ab79cb980f11d1
xandr.com,14126,RESELLER,f5ab79cb980f11d1
xandr.com,14254,RESELLER,f5ab79cb980f11d1
xandr.com,14344,RESELLER,f5ab79cb980f11d1
xandr.com,15059,RESELLER,f5ab79cb980f11d1
xandr.com,7353,RESELLER,f5ab79cb980f11d1
xandr.com,7445,RESELLER,f5ab79cb980f11d1
xandr.com,7847,RESELLER,f5ab79cb980f11d1
xandr.com,8804,RESELLER,f5ab79cb980f11d1
xapads.com,117219,RESELLER
xapads.com,164745,RESELLER
yahoo.com,55029,RESELLER,e1a5b5b6e3255540
yahoo.com,55771,RESELLER,e1a5b5b6e3255540
yahoo.com,58935,RESELLER,e1a5b5b6e3255540
yahoo.com,58986,RESELLER,e1a5b5b6e3255540
yahoo.com,59244,RESELLER,e1a5b5b6e3255540
yahoo.com,59262,RESELLER,e1a5b5b6e3255540
yahoo.com,59318,RESELLER,e1a5b5b6e3255540
yahoo.com,59627,RESELLER,e1a5b5b6e3255540
yahoo.com,59669,RESELLER,e1a5b5b6e3255540
yahoo.com,59781,RESELLER,e1a5b5b6e3255540
yahoo.com,59905,RESELLER,e1a5b5b6e3255540
yahoo.com,59906,RESELLER,e1a5b5b6e3255540
yahoo.com,60010,RESELLER,e1a5b5b6e3255540
yahoo.com,60013,RESELLER,e1a5b5b6e3255540
yandex.com,95746987,RESELLER
yeahmobi.com,113772,RESELLER
yeahmobi.com,5135195,RESELLER
yeahmobi.com,5135347,RESELLER
yieldlab.net,11114007,RESELLER
yieldlab.net,2172218,RESELLER
yieldlab.net,227224,RESELLER
yieldlab.net,495507,RESELLER
yieldlab.net,506261,RESELLER
yieldlab.net,5798882,RESELLER
yieldmo.com,2719019867620450718,RESELLER
